module codeberg.org/emanuelpina/mailygo

go 1.14

require (
	github.com/caarlos0/env/v6 v6.7.2
	github.com/golang/protobuf v1.5.2 // indirect
	github.com/google/safebrowsing v0.0.0-20190624211811-bbf0d20d26b3
	github.com/microcosm-cc/bluemonday v1.0.16
	golang.org/x/net v0.7.0 // indirect
	google.golang.org/protobuf v1.27.1 // indirect
)
